599 973
609 232
952 239
801 305
715 962
345 431
949 727
88 784
912 209
775 389
795 42
709 505
489 191
879 105
102 578
313 512
745 57
353 214
256 516
492 722
589 258
931 808
307 906
984 781
912 883
287 15
866 35
957 336
397 712
87 53
179 799
77 325
475 170
446 301
310 720
227 193
423 803
226 847
173 422
660 455
686 294
513 499
928 602
832 227
578 137
138 97
503 365
290 678
868 490
623 391
836 514
62 959
995 359
843 231
871 668
417 515
755 364
717 291
189 85
915 112
89 774
714 843
458 476
774 10
652 114
715 196
228 99
699 151
106 336
301 184
118 366
976 450
975 157
160 344
743 978
340 609
840 145
562 239
806 766
595 938
205 941
662 621
565 821
891 290
835 569
802 335
750 846
862 262
677 670
226 90
66 251
724 445
54 977
541 81
906 193
535 516
554 335
178 891
671 558
476 436
433 434
934 230
953 136
274 302
42 541
385 306
687 29
581 79
101 373
344 598
854 264
133 107
555 604
172 686
138 693
968 701
648 339
435 791
394 32
750 463
287 984
649 414
783 505
33 135
382 132
580 91
497 840
914 127
224 957
546 76
131 107
436 49
141 413
58 661
786 421
273 849
652 735
455 294
63 662
332 541
210 599
766 569
385 63
662 237
213 319
387 743
81 699
162 473
408 617
586 253
912 336
987 331
874 240
58 929
446 347
416 266
107 296
810 185
527 157
578 476
733 287
656 134
318 65
226 390
474 817
169 449
772 773
730 598
503 759
288 212
133 28
267 73
62 592
395 844
466 724
231 191
823 644
452 897
632 979
496 86
198 447
257 132
793 257
515 664
861 107
900 259
462 989
201 129
820 765
374 627
164 716
765 509
812 940
356 641
233 234
598 498
379 575
975 55
413 78
52 722
91 198
441 975
734 141
523 973
654 91
69 501
248 222
570 222
161 148
75 823
242 21
154 837
629 756
557 445
146 246
419 85
293 118
543 238
331 690
164 742
471 431
990 87
298 435
947 271
12 894
407 436
544 745
891 26
790 471
777 38
464 777
582 762
785 283
635 461
95 690
455 116
64 52
725 328
581 912
546 425
755 836
796 553
191 584
449 937
318 280
805 450
81 521
182 512
188 930
131 609
1 1
2 2
